Questions;Réponses 1;Réponses 2;Réponses 3;Caractéristiques1;Caractéristiques2;Caractéristiques3
Votre ami.e est en danger...;Vous partez en courant;Vous appelez à l’aide en espérant que quelqu’un réponde;Vous accourez pour l’aider sans aucune hésitation;1,0,0,0;2,0,0,0;3,0,0,0
Vous avez...;2 phobies;1 phobie;Aucune phobie;1,0,0,0;2,0,0,0;3,0,0,0
Il y a une grosse araignée chez vous...;Vous appelez le/la voisin.e pour qu’il l’enlève;Vous la tuez;Vous la déplacez délicatement à l’extérieur;1,0,0,0;2,0,0,0;3,0,0,0
Votre coiffeur a raté votre coupe...;Vous dites que ça vous plait malgré tout;Vous ne dites rien;Vous lui dites qu’il l’a ratée;1,0,0,0;2,0,0,0;3,0,0,0
Votre professeur annonce une évaluation dans 2 semaines...;Pas besoin de réviser vous y aller au talent;Vous réviserez dans 1 semaine il vous reste du temps;Vous commencez à réviser pour prendre de l'avance;0,1,0,0;0,2,0,0;0,3,0,0
Pour vos études, vous visez...;Rien;Bac+3;Bac+8;0,1,0,0;0,2,0,0;0,3,0,0
Lors d une évaluation...;Au moins vous êtes présent;Vous visez la moyenne;Vous visez la meilleure note;0,1,0,0;0,2,0,0;0,3,0,0
Vous avez cours à 8h un lundi matin.Vous vous levez à...;7h55, au pire vous arriverez un peu en retard;7h30 ça vous laisse le temps d’arriver pile à l'heure;6h30 pour avoir le temps de relire votre cours avant;0,1,0,0;0,2,0,0;0,3,0,0
La réaction de combustion du bois dans l’air est possible grâce...;à la vapeur d’eau;au diazote;au dioxygène;0,0,1,0;0,0,2,0;0,0,3,0
Combien font : 43 + 5 * 2...;je sais pas;96;53;0,0,1,0;0,0,2,0;0,0,3,0
if I ask you who is the last USA president, you tell me that it is...;Obama;Trump;Biden;0,0,1,0;0,0,2,0;0,0,3,0
La Somalie est en...;Amérique du Sud;Europe;Afrique;0,0,1,0;0,0,2,0;0,0,3,0
Vous êtes dans une situation de partage impossible, il y a 2 bonbons pour 3 personnes...;Tu prends tous les bonbons sous prétexte que c'est mauvais pour la santé;Vous faites plouf-plouf;Vous les laissez pour vos amis;0,0,0,1;0,0,0,2;0,0,0,3
Vous allez chercher vos manuels pour l année avec un.e ami.e, il ne reste que 2 manuels, un neuf et un endommagé. Lequel prenez vous...;Le neuf sans hésitation;Je laisse mon ami.e choisir à ma place;Celui endommagé et je laisse le neuf à mon ami.e;0,0,0,1;0,0,0,2;0,0,0,3
Un de vos camarades rencontre des difficultés  dans votre matière préférée...;C’est pas votre problème;Vous lui souhaitez bonne chance;Vous lui proposez votre aide;0,0,0,1;0,0,0,2;0,0,0,3
Une personne âgée est très lente pour traverser la route...;Vous lui dites d’accélérer;Vous attendez qu’elle traverse;Vous l’aidez à traverser;0,0,0,2;0,0,0,3;0,0,0,4